#pragma SWIG nowarn=315
#pragma SWIG nowarn=503
#pragma SWIG nowarn=362
#pragma SWIG nowarn=384
#pragma SWIG nowarn=383
#pragma SWIG nowarn=389
#pragma SWIG nowarn=361
#pragma SWIG nowarn=302
#pragma SWIG nowarn=401
